…
# "https://developers.google.com/public-data/docs/canonical/countries_csv"
data_longlat <- "../data/long_lat.csv"

# http://data.worldbank.org/indicator/NY.GDP.PCAP.PP.CD
data_ppp <- "../data/ppp/API_NY.GDP.PCAP.PP.CD_DS2_en_csv_v2.csv"
```

Poking around:

``` r
d %>% arrange(desc(total))
```

    ## # A tibble: 193 x 10
    ##               country beer_servings spirit_servings wine_servings total
    ##                 <chr>         <int>           <int>         <int> <dbl>
    ##  1            Belarus           142             373            42  14.4
    ##  2          Lithuania           343             244            56  12.9
    ##  3            Andorra           245             138           312  12.4
    ##  4            Grenada           199             438            28  11.9
    ##  5     Czech Republic           361             170           134  11.8
    ##  6             France           127             151           370  11.8
    ##  7 Russian Federation           247             326            73  11.5
    ##  8            Ireland           313             118           165  11.4
    ##  9         Luxembourg           236             133           271  11.4
    ## 10           Slovakia           196             293           116  11.4
    ## # ... with 183 more rows, and 5 more variables: abbr.x <chr>,
    ## #   latitude <dbl>, longitude <dbl>, abbr.y <chr>, ppp <dbl>
…
