…
Poking around:

``` r
drinks %>% arrange(desc(total))
```

    ## # A tibble: 193 x 10
    ##    country beer_servings spirit_servings wine_servings total abbr_2
    ##    <chr>           <dbl>           <dbl>         <dbl> <dbl> <chr> 
    ##  1 Belarus           142             373            42  14.4 BY    
    ##  2 Lithua…           343             244            56  12.9 LT    
    ##  3 Andorra           245             138           312  12.4 AD    
    ##  4 Grenada           199             438            28  11.9 GD    
    ##  5 Czech …           361             170           134  11.8 CZ    
    ##  6 France            127             151           370  11.8 FR    
    ##  7 Russia…           247             326            73  11.5 <NA>  
    ##  8 Ireland           313             118           165  11.4 IE    
    ##  9 Luxemb…           236             133           271  11.4 LU    
    ## 10 Slovak…           196             293           116  11.4 SK    
    ## # … with 183 more rows, and 4 more variables: latitude <dbl>,
    ## #   longitude <dbl>, abbr <chr>, ppp <dbl>
…
